{  
    "results":[  
       {  
          "vote_count":229,
          "id":343668,
          "video":false,
          "vote_average":7.4,
          "title":"Kingsman: The Golden Circle",
          "popularity":169.646793,
          "poster_path":"\/default.png",
          "original_language":"en",
          "original_title":"Kingsman: The Golden Circle",
          "genre_ids":[  
             28,
             12,
             35
          ],
          "backdrop_path":"\/uExPmkOHJySrbJyJDJylHDqaT58.jpg",
          "adult":false,
          "overview":"When an attack on the Kingsman headquarters takes place and a new villain rises, Eggsy and Merlin are forced to work together with the American agency known as the Statesman to save the world.",
          "release_date":"2017-09-20"
       },
       {  
          "vote_count":938,
          "id":396422,
          "video":false,
          "vote_average":6.4,
          "title":"Annabelle: Creation",
          "popularity":166.569849,
          "poster_path":"\/default.png",
          "original_language":"en",
          "original_title":"Annabelle: Creation",
          "genre_ids":[  
             53,
             27
          ],
          "backdrop_path":"\/o8u0NyEigCEaZHBdCYTRfXR8U4i.jpg",
          "adult":false,
          "overview":"Several years after the tragic death of their little girl, a dollmaker and his wife welcome a nun and several girls from a shuttered orphanage into their home, soon becoming the target of the dollmaker's possessed creation, Annabelle.",
          "release_date":"2017-08-03"
       },
       {  
          "vote_count":245,
          "id":381283,
          "video":false,
          "vote_average":6.6,
          "title":"mother!",
          "popularity":125.671439,
          "poster_path":"\/default.png",
          "original_language":"en",
          "original_title":"mother!",
          "genre_ids":[  
             18,
             27
          ],
          "backdrop_path":"\/uuQpQ8VDOtVL2IO4y2pR58odkS5.jpg",
          "adult":false,
          "overview":"A couple's relationship is tested when uninvited guests arrive at their home, disrupting their tranquil existence.",
          "release_date":"2017-09-13"
       },
       {  
          "vote_count":1499,
          "id":281338,
          "video":false,
          "vote_average":6.7,
          "title":"War for the Planet of the Apes",
          "popularity":97.955808,
          "poster_path":"\/default.png",
          "original_language":"en",
          "original_title":"War for the Planet of the Apes",
          "genre_ids":[  
             18,
             878,
             10752
          ],
          "backdrop_path":"\/ulMscezy9YX0bhknvJbZoUgQxO5.jpg",
          "adult":false,
          "overview":"Caesar and his apes are forced into a deadly conflict with an army of humans led by a ruthless Colonel. After the apes suffer unimaginable losses, Caesar wrestles with his darker instincts and begins his own mythic quest to avenge his kind. As the journey finally brings them face to face, Caesar and the Colonel are pitted against each other in an epic battle that will determine the fate of both their species and the future of the planet.",
          "release_date":"2017-07-11"
       },
       {  
          "vote_count":108,
          "id":415842,
          "video":false,
          "vote_average":4.8,
          "title":"American Assassin",
          "popularity":90.994145,
          "poster_path":"\/default.png",
          "original_language":"en",
          "original_title":"American Assassin",
          "genre_ids":[  
             28,
             53
          ],
          "backdrop_path":"\/puKZWmBIpuEMwGCn2hZkublG1rO.jpg",
          "adult":false,
          "overview":"Following the murder of his fiancée, Mitch Rapp trains under the instruction of Cold War veteran Stan Hurley. The pair then is enlisted to investigate a wave of apparently random attacks on military and civilian targets.",
          "release_date":"2017-09-14"
       },
       {  
          "vote_count":392,
          "id":342473,
          "video":false,
          "vote_average":7.1,
          "title":"Ballerina",
          "popularity":82.449555,
          "poster_path":"\/default.png",
          "original_language":"en",
          "original_title":"Ballerina",
          "genre_ids":[  
             16,
             10751,
             12,
             35
          ],
          "backdrop_path":"\/yfRWtsCVDiYnfrZ8ndL3G2WMHid.jpg",
          "adult":false,
          "overview":"Set in 1879 Paris. An orphan girl dreams of becoming a ballerina and flees her rural Brittany for Paris, where she passes for someone else and accedes to the position of pupil at the Grand Opera house.",
          "release_date":"2016-12-14"
       },
       {  
          "vote_count":129,
          "id":268531,
          "video":false,
          "vote_average":6.5,
          "title":"Captain Underpants: The First Epic Movie",
          "popularity":67.990636,
          "poster_path":"\/default.png",
          "original_language":"en",
          "original_title":"Captain Underpants: The First Epic Movie",
          "genre_ids":[  
             28,
             16,
             35,
             10751
          ],
          "backdrop_path":"\/5ceIqlRzWH4x1IPU9OfjXHO2Kz6.jpg",
          "adult":false,
          "overview":"Two mischievous kids hypnotize their mean elementary school principal and turn him into their comic book creation, the kind-hearted and elastic-banded Captain Underpants.",
          "release_date":"2017-06-01"
       },
       {  
          "vote_count":494,
          "id":406990,
          "video":false,
          "vote_average":7.4,
          "title":"What Happened to Monday",
          "popularity":65.417446,
          "poster_path":"\/default.png",
          "original_language":"en",
          "original_title":"What Happened to Monday",
          "genre_ids":[  
             878,
             53
          ],
          "backdrop_path":"\/wwZ2uXOwPkMrZSeFn9s7WFXEMg6.jpg",
          "adult":false,
          "overview":"In a world where families are limited to one child due to overpopulation, a set of identical septuplets must avoid being put to a long sleep by the government and dangerous infighting while investigating the disappearance of one of their own.",
          "release_date":"2017-08-18"
       },
       {  
          "vote_count":3,
          "id":400710,
          "video":false,
          "vote_average":3.3,
          "title":"Flatliners",
          "popularity":60.380226,
          "poster_path":"\/default.png",
          "original_language":"en",
          "original_title":"Flatliners",
          "genre_ids":[  
             18,
             878
          ],
          "backdrop_path":"\/A9L23hwp8yLUbMci2jIkX4RV6kg.jpg",
          "adult":false,
          "overview":"Five medical students, hoping to gain insight into the mystery of what lies beyond the confines of life, embark on a daring and dangerous experiment. By stopping their hearts for short periods of time, each triggers a near-death experience. As the investigation becomes more and more perilous, they are forced to confront the sins of their pasts, as well as contend with the paranormal consequences of trespassing to the other side.",
          "release_date":"2017-09-28"
       },
       {  
          "vote_count":6,
          "id":335984,
          "video":false,
          "vote_average":10,
          "title":"Blade Runner 2049",
          "popularity":56.836696,
          "poster_path":"\/default.png",
          "original_language":"en",
          "original_title":"Blade Runner 2049",
          "genre_ids":[  
             878
          ],
          "backdrop_path":"\/zfWPeRgYpRjPZLGwwkfnTfaFnNh.jpg",
          "adult":false,
          "overview":"Thirty years after the events of the first film, a new blade runner, LAPD Officer K, unearths a long-buried secret that has the potential to plunge what's left of society into chaos. K's discovery leads him on a quest to find Rick Deckard, a former LAPD blade runner who has been missing for 30 years.",
          "release_date":"2017-10-04"
       },
       {  
          "vote_count":289,
          "id":339692,
          "video":false,
          "vote_average":6.9,
          "title":"Shot Caller",
          "popularity":44.416196,
          "poster_path":"\/default.png",
          "original_language":"en",
          "original_title":"Shot Caller",
          "genre_ids":[  
             18,
             80,
             53
          ],
          "backdrop_path":"\/lLj0Mm99G5EFDPOvIDpr222AJ1a.jpg",
          "adult":false,
          "overview":"A newly-released prison gangster is forced by the leaders of his gang to orchestrate a major crime with a brutal rival gang on the streets of Southern California.",
          "release_date":"2017-07-13"
       },
       {  
          "vote_count":712,
          "id":341013,
          "video":false,
          "vote_average":6.1,
          "title":"Atomic Blonde",
          "popularity":42.071741,
          "poster_path":"\/default.png",
          "original_language":"en",
          "original_title":"Atomic Blonde",
          "genre_ids":[  
             28,
             53
          ],
          "backdrop_path":"\/lj3wkYkJGkfmDfXkKrVarSJpFD4.jpg",
          "adult":false,
          "overview":"An undercover MI6 agent is sent to Berlin during the Cold War to investigate the murder of a fellow agent and recover a missing list of double agents.",
          "release_date":"2017-07-26"
       },
       {  
          "vote_count":182,
          "id":337170,
          "video":false,
          "vote_average":6.2,
          "title":"American Made",
          "popularity":40.120422,
          "poster_path":"\/default.png",
          "original_language":"en",
          "original_title":"American Made",
          "genre_ids":[  
             35,
             28,
             80,
             53
          ],
          "backdrop_path":"\/jcKzxRGYiXuS7ctTHLdw9wH8d7V.jpg",
          "adult":false,
          "overview":"The true story of pilot Barry Seal, who transported contraband for the CIA and the Medellin cartel in the 1980s.",
          "release_date":"2017-08-17"
       },
       {  
          "vote_count":208,
          "id":416477,
          "video":false,
          "vote_average":7.8,
          "title":"The Big Sick",
          "popularity":37.597629,
          "poster_path":"\/default.png",
          "original_language":"en",
          "original_title":"The Big Sick",
          "genre_ids":[  
             35,
             18,
             10749
          ],
          "backdrop_path":"\/fYI8WX2DquAHMqwh5mOMxc6RU5j.jpg",
          "adult":false,
          "overview":"Pakistan-born comedian Kumail Nanjiani and grad student Emily Gardner fall in love but struggle as their cultures clash. When Emily contracts a mysterious illness, Kumail finds himself forced to face her feisty parents, his family's expectations, and his true feelings.",
          "release_date":"2017-06-23"
       },
       {  
          "vote_count":637,
          "id":381289,
          "video":false,
          "vote_average":6.6,
          "title":"A Dog's Purpose",
          "popularity":32.136509,
          "poster_path":"\/default.png",
          "original_language":"en",
          "original_title":"A Dog's Purpose",
          "genre_ids":[  
             35,
             18,
             10751,
             14
          ],
          "backdrop_path":"\/2ddVTlMyATZdvUHE7DPExA2X6xF.jpg",
          "adult":false,
          "overview":"A dog goes on quest to discover his purpose in life over the course of several lifetimes with multiple owners.",
          "release_date":"2017-01-19"
       },
       {  
          "vote_count":0,
          "id":284053,
          "video":false,
          "vote_average":0,
          "title":"Thor: Ragnarok",
          "popularity":31.073705,
          "poster_path":"\/default.png",
          "original_language":"en",
          "original_title":"Thor: Ragnarok",
          "genre_ids":[  
             28,
             12,
             14,
             878
          ],
          "backdrop_path":"\/5wNUJs23rT5rTBacNyf5h83AynM.jpg",
          "adult":false,
          "overview":"Thor is imprisoned on the other side of the universe and finds himself in a race against time to get back to Asgard to stop Ragnarok, the destruction of his homeworld and the end of Asgardian civilization, at the hands of an all-powerful new threat, the ruthless Hela.",
          "release_date":"2017-10-25"
       },
       {  
          "vote_count":0,
          "id":335360,
          "video":false,
          "vote_average":0,
          "title":"My Little Pony: The Movie",
          "popularity":29.668976,
          "poster_path":"\/default.png",
          "original_language":"en",
          "original_title":"My Little Pony: The Movie",
          "genre_ids":[  
             12,
             16,
             10751,
             14
          ],
          "backdrop_path":"\/t9QTd0V3rbv6W25QbHJuC6zbIo1.jpg",
          "adult":false,
          "overview":"A new dark force threatens Ponyville, and the Mane 6 – Twilight Sparkle, Applejack, Rainbow Dash, Pinkie Pie, Fluttershy and Rarity – embark on an unforgettable journey beyond Equestria where they meet new friends and exciting challenges on a quest to use the magic of friendship and save their home.",
          "release_date":"2017-10-05"
       },
       {  
          "vote_count":121,
          "id":399170,
          "video":false,
          "vote_average":6.4,
          "title":"Logan Lucky",
          "popularity":29.200417,
          "poster_path":"\/default.png",
          "original_language":"en",
          "original_title":"Logan Lucky",
          "genre_ids":[  
             28,
             80,
             35
          ],
          "backdrop_path":"\/vzu7tNNF5jT6u2AScPwi6qF7T75.jpg",
          "adult":false,
          "overview":"Trying to reverse a family curse, brothers Jimmy and Clyde Logan set out to execute an elaborate robbery during the legendary Coca-Cola 600 race at the Charlotte Motor Speedway.",
          "release_date":"2017-08-17"
       },
       {  
          "vote_count":3,
          "id":401898,
          "video":false,
          "vote_average":6.7,
          "title":"Thelma",
          "popularity":26.165182,
          "poster_path":"\/default.png",
          "original_language":"no",
          "original_title":"Thelma",
          "genre_ids":[  
             10749,
             14,
             53
          ],
          "backdrop_path":"\/fSyNyntZmtNb1Bn5NNbvqR7DRsx.jpg",
          "adult":false,
          "overview":"A college student starts to experience extreme seizures while studying at a university in Oslo, Norway. She soon learns that the violent episodes are a symptom of inexplicable, and often dangerous, supernatural abilities.",
          "release_date":"2017-09-15"
       },
       {  
          "vote_count":316,
          "id":345938,
          "video":false,
          "vote_average":6.9,
          "title":"The Shack",
          "popularity":25.984392,
          "poster_path":"\/default.png",
          "original_language":"en",
          "original_title":"The Shack",
          "genre_ids":[  
             18,
             14
          ],
          "backdrop_path":"\/un7pVnJC2el8YxdIOg6YrSmBTlO.jpg",
          "adult":false,
          "overview":"After suffering a family tragedy, Mack Phillips spirals into a deep depression causing him to question his innermost beliefs. Facing a crisis of faith, he receives a mysterious letter urging him to an abandoned shack deep in the Oregon wilderness. Despite his doubts, Mack journeys to the shack and encounters an enigmatic trio of strangers led by a woman named Papa. Through this meeting, Mack finds important truths that will transform his understanding of his tragedy and change his life forever.",
          "release_date":"2017-03-03"
       }
    ],
    "page":1,
    "total_results":281,
    "dates":{  
       "maximum":"2017-10-27",
       "minimum":"2017-10-05"
    },
    "total_pages":15
}
